{
  "object": "list",
  "data": [
    {
      "id": 18830730,
      "datetime": 1763634330,
      "duration": 282,
      "time_to_first_token": null,
      "user_id": 8766,
      "token_id": 2818,
      "endpoint": "/v1/chat/completions",
      "method": "POST",
      "model": "mistralai/Mistral-Small-3.2-24B-Instruct-2506",
      "request_model": "albert-large",
      "prompt_tokens": 1190,
      "completion_tokens": 6.0,
      "total_tokens": 1196,
      "cost": 0.0,
      "status": 200,
      "kwh_min": 0.0,
      "kwh_max": 0.0,
      "kgco2eq_min": 0.0,
      "kgco2eq_max": 0.0
    },
    {
      "id": 18830208,
      "datetime": 1763633192,
      "duration": 786,
      "time_to_first_token": null,
      "user_id": 8766,
      "token_id": 2818,
      "endpoint": "/v1/chat/completions",
      "method": "POST",
      "model": "mistralai/Mistral-Small-3.2-24B-Instruct-2506",
      "request_model": "albert-large",
      "prompt_tokens": 3242,
      "completion_tokens": 8.0,
      "total_tokens": 3250,
      "cost": 0.0,
      "status": 200,
      "kwh_min": 0.0,
      "kwh_max": 0.0,
      "kgco2eq_min": 0.0,
      "kgco2eq_max": 0.0
    },
    {
      "id": 18830204,
      "datetime": 1763633168,
      "duration": 613,
      "time_to_first_token": null,
      "user_id": 8766,
      "token_id": 2818,
      "endpoint": "/v1/chat/completions",
      "method": "POST",
      "model": "mistralai/Mistral-Small-3.2-24B-Instruct-2506",
      "request_model": "albert-large",
      "prompt_tokens": 2479,
      "completion_tokens": 7.0,
      "total_tokens": 2486,
      "cost": 0.0,
      "status": 200,
      "kwh_min": 0.0,
      "kwh_max": 0.0,
      "kgco2eq_min": 0.0,
      "kgco2eq_max": 0.0
    },
    {
      "id": 18830200,
      "datetime": 1763633148,
      "duration": 329,
      "time_to_first_token": null,
      "user_id": 8766,
      "token_id": 2818,
      "endpoint": "/v1/chat/completions",
      "method": "POST",
      "model": "mistralai/Mistral-Small-3.2-24B-Instruct-2506",
      "request_model": "albert-large",
      "prompt_tokens": 1420,
      "completion_tokens": 6.0,
      "total_tokens": 1426,
      "cost": 0.0,
      "status": 200,
      "kwh_min": 0.0,
      "kwh_max": 0.0,
      "kgco2eq_min": 0.0,
      "kgco2eq_max": 0.0
    },
    {
      "id": 18830180,
      "datetime": 1763633109,
      "duration": 7560,
      "time_to_first_token": null,
      "user_id": 8766,
      "token_id": 2818,
      "endpoint": "/v1/chat/completions",
      "method": "POST",
      "model": "mistralai/Mistral-Small-3.2-24B-Instruct-2506",
      "request_model": "albert-large",
      "prompt_tokens": 2845,
      "completion_tokens": 311.0,
      "total_tokens": 3156,
      "cost": 0.0,
      "status": 200,
      "kwh_min": 0.0,
      "kwh_max": 0.0,
      "kgco2eq_min": 0.0,
      "kgco2eq_max": 0.0
    },
    {
      "id": 18830177,
      "datetime": 1763633094,
      "duration": 16758,
      "time_to_first_token": null,
      "user_id": 8766,
      "token_id": 2818,
      "endpoint": "/v1/chat/completions",
      "method": "POST",
      "model": "mistralai/Mistral-Small-3.2-24B-Instruct-2506",
      "request_model": "albert-large",
      "prompt_tokens": 2845,
      "completion_tokens": 478.0,
      "total_tokens": 3323,
      "cost": 0.0,
      "status": 200,
      "kwh_min": 0.0,
      "kwh_max": 0.0,
      "kgco2eq_min": 0.0,
      "kgco2eq_max": 0.0
    },
    {
      "id": 18827997,
      "datetime": 1763627341,
      "duration": 1602,
      "time_to_first_token": null,
      "user_id": 8766,
      "token_id": 2818,
      "endpoint": "/v1/chat/completions",
      "method": "POST",
      "model": "mistralai/Mistral-Small-3.2-24B-Instruct-2506",
      "request_model": "albert-large",
      "prompt_tokens": 261,
      "completion_tokens": 72.0,
      "total_tokens": 333,
      "cost": 0.0,
      "status": 200,
      "kwh_min": 0.0,
      "kwh_max": 0.0,
      "kgco2eq_min": 0.0,
      "kgco2eq_max": 0.0
    },
    {
      "id": 18827996,
      "datetime": 1763627336,
      "duration": 4523,
      "time_to_first_token": null,
      "user_id": 8766,
      "token_id": 2818,
      "endpoint": "/v1/chat/completions",
      "method": "POST",
      "model": "mistralai/Mistral-Small-3.2-24B-Instruct-2506",
      "request_model": "albert-large",
      "prompt_tokens": 2273,
      "completion_tokens": 212.0,
      "total_tokens": 2485,
      "cost": 0.0,
      "status": 200,
      "kwh_min": 0.0,
      "kwh_max": 0.0,
      "kgco2eq_min": 0.0,
      "kgco2eq_max": 0.0
    },
    {
      "id": 18827995,
      "datetime": 1763627334,
      "duration": 1832,
      "time_to_first_token": null,
      "user_id": 8766,
      "token_id": 2818,
      "endpoint": "/v1/chat/completions",
      "method": "POST",
      "model": "mistralai/Mistral-Small-3.2-24B-Instruct-2506",
      "request_model": "albert-large",
      "prompt_tokens": 266,
      "completion_tokens": 56.0,
      "total_tokens": 322,
      "cost": 0.0,
      "status": 200,
      "kwh_min": 0.0,
      "kwh_max": 0.0,
      "kgco2eq_min": 0.0,
      "kgco2eq_max": 0.0
    },
    {
      "id": 18827992,
      "datetime": 1763627327,
      "duration": 1230,
      "time_to_first_token": null,
      "user_id": 8766,
      "token_id": 2818,
      "endpoint": "/v1/chat/completions",
      "method": "POST",
      "model": "mistralai/Mistral-Small-3.2-24B-Instruct-2506",
      "request_model": "albert-large",
      "prompt_tokens": 226,
      "completion_tokens": 35.0,
      "total_tokens": 261,
      "cost": 0.0,
      "status": 200,
      "kwh_min": 0.0,
      "kwh_max": 0.0,
      "kgco2eq_min": 0.0,
      "kgco2eq_max": 0.0
    },
    {
      "id": 18827993,
      "datetime": 1763627327,
      "duration": 7472,
      "time_to_first_token": null,
      "user_id": 8766,
      "token_id": 2818,
      "endpoint": "/v1/chat/completions",
      "method": "POST",
      "model": "mistralai/Mistral-Small-3.2-24B-Instruct-2506",
      "request_model": "albert-large",
      "prompt_tokens": 690,
      "completion_tokens": 231.0,
      "total_tokens": 921,
      "cost": 0.0,
      "status": 200,
      "kwh_min": 0.0,
      "kwh_max": 0.0,
      "kgco2eq_min": 0.0,
      "kgco2eq_max": 0.0
    },
    {
      "id": 18827991,
      "datetime": 1763627323,
      "duration": 3888,
      "time_to_first_token": null,
      "user_id": 8766,
      "token_id": 2818,
      "endpoint": "/v1/chat/completions",
      "method": "POST",
      "model": "mistralai/Mistral-Small-3.2-24B-Instruct-2506",
      "request_model": "albert-large",
      "prompt_tokens": 601,
      "completion_tokens": 180.0,
      "total_tokens": 781,
      "cost": 0.0,
      "status": 200,
      "kwh_min": 0.0,
      "kwh_max": 0.0,
      "kgco2eq_min": 0.0,
      "kgco2eq_max": 0.0
    },
    {
      "id": 18827988,
      "datetime": 1763627322,
      "duration": 186,
      "time_to_first_token": null,
      "user_id": 8766,
      "token_id": 2818,
      "endpoint": "/v1/chat/completions",
      "method": "POST",
      "model": "mistralai/Mistral-Small-3.2-24B-Instruct-2506",
      "request_model": "albert-large",
      "prompt_tokens": 594,
      "completion_tokens": 1.0,
      "total_tokens": 595,
      "cost": 0.0,
      "status": 200,
      "kwh_min": 0.0,
      "kwh_max": 0.0,
      "kgco2eq_min": 0.0,
      "kgco2eq_max": 0.0
    },
    {
      "id": 18827987,
      "datetime": 1763627321,
      "duration": 910,
      "time_to_first_token": null,
      "user_id": 8766,
      "token_id": 2818,
      "endpoint": "/v1/chat/completions",
      "method": "POST",
      "model": "mistralai/Mistral-Small-3.2-24B-Instruct-2506",
      "request_model": "albert-large",
      "prompt_tokens": 274,
      "completion_tokens": 37.0,
      "total_tokens": 311,
      "cost": 0.0,
      "status": 200,
      "kwh_min": 0.0,
      "kwh_max": 0.0,
      "kgco2eq_min": 0.0,
      "kgco2eq_max": 0.0
    },
    {
      "id": 18827990,
      "datetime": 1763627319,
      "duration": 8062,
      "time_to_first_token": null,
      "user_id": 8766,
      "token_id": 2818,
      "endpoint": "/v1/chat/completions",
      "method": "POST",
      "model": "mistralai/Mistral-Small-3.2-24B-Instruct-2506",
      "request_model": "albert-large",
      "prompt_tokens": 637,
      "completion_tokens": 377.0,
      "total_tokens": 1014,
      "cost": 0.0,
      "status": 200,
      "kwh_min": 0.0,
      "kwh_max": 0.0,
      "kgco2eq_min": 0.0,
      "kgco2eq_max": 0.0
    },
    {
      "id": 18827985,
      "datetime": 1763627317,
      "duration": 1039,
      "time_to_first_token": null,
      "user_id": 8766,
      "token_id": 2818,
      "endpoint": "/v1/chat/completions",
      "method": "POST",
      "model": "mistralai/Mistral-Small-3.2-24B-Instruct-2506",
      "request_model": "albert-large",
      "prompt_tokens": 205,
      "completion_tokens": 41.0,
      "total_tokens": 246,
      "cost": 0.0,
      "status": 200,
      "kwh_min": 0.0,
      "kwh_max": 0.0,
      "kgco2eq_min": 0.0,
      "kgco2eq_max": 0.0
    },
    {
      "id": 18827989,
      "datetime": 1763627317,
      "duration": 6349,
      "time_to_first_token": null,
      "user_id": 8766,
      "token_id": 2818,
      "endpoint": "/v1/chat/completions",
      "method": "POST",
      "model": "mistralai/Mistral-Small-3.2-24B-Instruct-2506",
      "request_model": "albert-large",
      "prompt_tokens": 541,
      "completion_tokens": 283.0,
      "total_tokens": 824,
      "cost": 0.0,
      "status": 200,
      "kwh_min": 0.0,
      "kwh_max": 0.0,
      "kgco2eq_min": 0.0,
      "kgco2eq_max": 0.0
    },
    {
      "id": 18827984,
      "datetime": 1763627316,
      "duration": 1049,
      "time_to_first_token": null,
      "user_id": 8766,
      "token_id": 2818,
      "endpoint": "/v1/chat/completions",
      "method": "POST",
      "model": "mistralai/Mistral-Small-3.2-24B-Instruct-2506",
      "request_model": "albert-large",
      "prompt_tokens": 698,
      "completion_tokens": 27.0,
      "total_tokens": 725,
      "cost": 0.0,
      "status": 200,
      "kwh_min": 0.0,
      "kwh_max": 0.0,
      "kgco2eq_min": 0.0,
      "kgco2eq_max": 0.0
    },
    {
      "id": 18827980,
      "datetime": 1763627316,
      "duration": 162,
      "time_to_first_token": null,
      "user_id": 8766,
      "token_id": 2818,
      "endpoint": "/v1/chat/completions",
      "method": "POST",
      "model": "mistralai/Mistral-Small-3.2-24B-Instruct-2506",
      "request_model": "albert-large",
      "prompt_tokens": 833,
      "completion_tokens": 1.0,
      "total_tokens": 834,
      "cost": 0.0,
      "status": 200,
      "kwh_min": 0.0,
      "kwh_max": 0.0,
      "kgco2eq_min": 0.0,
      "kgco2eq_max": 0.0
    },
    {
      "id": 18827981,
      "datetime": 1763627316,
      "duration": 340,
      "time_to_first_token": null,
      "user_id": 8766,
      "token_id": 2818,
      "endpoint": "/v1/chat/completions",
      "method": "POST",
      "model": "mistralai/Mistral-Small-3.2-24B-Instruct-2506",
      "request_model": "albert-large",
      "prompt_tokens": 729,
      "completion_tokens": 4.0,
      "total_tokens": 733,
      "cost": 0.0,
      "status": 200,
      "kwh_min": 0.0,
      "kwh_max": 0.0,
      "kgco2eq_min": 0.0,
      "kgco2eq_max": 0.0
    },
    {
      "id": 18827983,
      "datetime": 1763627316,
      "duration": 1219,
      "time_to_first_token": null,
      "user_id": 8766,
      "token_id": 2818,
      "endpoint": "/v1/chat/completions",
      "method": "POST",
      "model": "mistralai/Mistral-Small-3.2-24B-Instruct-2506",
      "request_model": "albert-large",
      "prompt_tokens": 205,
      "completion_tokens": 26.0,
      "total_tokens": 231,
      "cost": 0.0,
      "status": 200,
      "kwh_min": 0.0,
      "kwh_max": 0.0,
      "kgco2eq_min": 0.0,
      "kgco2eq_max": 0.0
    },
    {
      "id": 18827976,
      "datetime": 1763627315,
      "duration": 535,
      "time_to_first_token": null,
      "user_id": 8766,
      "token_id": 2818,
      "endpoint": "/v1/chat/completions",
      "method": "POST",
      "model": "mistralai/Mistral-Small-3.2-24B-Instruct-2506",
      "request_model": "albert-large",
      "prompt_tokens": 472,
      "completion_tokens": 12.0,
      "total_tokens": 484,
      "cost": 0.0,
      "status": 200,
      "kwh_min": 0.0,
      "kwh_max": 0.0,
      "kgco2eq_min": 0.0,
      "kgco2eq_max": 0.0
    },
    {
      "id": 18827982,
      "datetime": 1763627315,
      "duration": 1508,
      "time_to_first_token": null,
      "user_id": 8766,
      "token_id": 2818,
      "endpoint": "/v1/chat/completions",
      "method": "POST",
      "model": "mistralai/Mistral-Small-3.2-24B-Instruct-2506",
      "request_model": "albert-large",
      "prompt_tokens": 568,
      "completion_tokens": 35.0,
      "total_tokens": 603,
      "cost": 0.0,
      "status": 200,
      "kwh_min": 0.0,
      "kwh_max": 0.0,
      "kgco2eq_min": 0.0,
      "kgco2eq_max": 0.0
    },
    {
      "id": 18827979,
      "datetime": 1763627315,
      "duration": 888,
      "time_to_first_token": null,
      "user_id": 8766,
      "token_id": 2818,
      "endpoint": "/v1/chat/completions",
      "method": "POST",
      "model": "mistralai/Mistral-Small-3.2-24B-Instruct-2506",
      "request_model": "albert-large",
      "prompt_tokens": 825,
      "completion_tokens": 4.0,
      "total_tokens": 829,
      "cost": 0.0,
      "status": 200,
      "kwh_min": 0.0,
      "kwh_max": 0.0,
      "kgco2eq_min": 0.0,
      "kgco2eq_max": 0.0
    },
    {
      "id": 18827977,
      "datetime": 1763627315,
      "duration": 824,
      "time_to_first_token": null,
      "user_id": 8766,
      "token_id": 2818,
      "endpoint": "/v1/chat/completions",
      "method": "POST",
      "model": "mistralai/Mistral-Small-3.2-24B-Instruct-2506",
      "request_model": "albert-large",
      "prompt_tokens": 690,
      "completion_tokens": 1.0,
      "total_tokens": 691,
      "cost": 0.0,
      "status": 200,
      "kwh_min": 0.0,
      "kwh_max": 0.0,
      "kgco2eq_min": 0.0,
      "kgco2eq_max": 0.0
    },
    {
      "id": 18827986,
      "datetime": 1763627315,
      "duration": 5907,
      "time_to_first_token": null,
      "user_id": 8766,
      "token_id": 2818,
      "endpoint": "/v1/chat/completions",
      "method": "POST",
      "model": "mistralai/Mistral-Small-3.2-24B-Instruct-2506",
      "request_model": "albert-large",
      "prompt_tokens": 2369,
      "completion_tokens": 225.0,
      "total_tokens": 2594,
      "cost": 0.0,
      "status": 200,
      "kwh_min": 0.0,
      "kwh_max": 0.0,
      "kgco2eq_min": 0.0,
      "kgco2eq_max": 0.0
    },
    {
      "id": 18827978,
      "datetime": 1763627315,
      "duration": 845,
      "time_to_first_token": null,
      "user_id": 8766,
      "token_id": 2818,
      "endpoint": "/v1/chat/completions",
      "method": "POST",
      "model": "mistralai/Mistral-Small-3.2-24B-Instruct-2506",
      "request_model": "albert-large",
      "prompt_tokens": 929,
      "completion_tokens": 1.0,
      "total_tokens": 930,
      "cost": 0.0,
      "status": 200,
      "kwh_min": 0.0,
      "kwh_max": 0.0,
      "kgco2eq_min": 0.0,
      "kgco2eq_max": 0.0
    },
    {
      "id": 18827972,
      "datetime": 1763627286,
      "duration": 6103,
      "time_to_first_token": null,
      "user_id": 8766,
      "token_id": 2818,
      "endpoint": "/v1/chat/completions",
      "method": "POST",
      "model": "mistralai/Mistral-Small-3.2-24B-Instruct-2506",
      "request_model": "albert-large",
      "prompt_tokens": 2672,
      "completion_tokens": 284.0,
      "total_tokens": 2956,
      "cost": 0.0,
      "status": 200,
      "kwh_min": 0.0,
      "kwh_max": 0.0,
      "kgco2eq_min": 0.0,
      "kgco2eq_max": 0.0
    },
    {
      "id": 18827969,
      "datetime": 1763627278,
      "duration": 8202,
      "time_to_first_token": null,
      "user_id": 8766,
      "token_id": 2818,
      "endpoint": "/v1/chat/completions",
      "method": "POST",
      "model": "mistralai/Mistral-Small-3.2-24B-Instruct-2506",
      "request_model": "albert-large",
      "prompt_tokens": 2672,
      "completion_tokens": 380.0,
      "total_tokens": 3052,
      "cost": 0.0,
      "status": 200,
      "kwh_min": 0.0,
      "kwh_max": 0.0,
      "kgco2eq_min": 0.0,
      "kgco2eq_max": 0.0
    },
    {
      "id": 18827648,
      "datetime": 1763625914,
      "duration": 8930,
      "time_to_first_token": null,
      "user_id": 8766,
      "token_id": 2818,
      "endpoint": "/v1/chat/completions",
      "method": "POST",
      "model": "mistralai/Mistral-Small-3.2-24B-Instruct-2506",
      "request_model": "albert-large",
      "prompt_tokens": 2297,
      "completion_tokens": 374.0,
      "total_tokens": 2671,
      "cost": 0.0,
      "status": 200,
      "kwh_min": 0.0,
      "kwh_max": 0.0,
      "kgco2eq_min": 0.0,
      "kgco2eq_max": 0.0
    },
    {
      "id": 18799122,
      "datetime": 1763569717,
      "duration": 2050,
      "time_to_first_token": null,
      "user_id": 8766,
      "token_id": 2818,
      "endpoint": "/v1/chat/completions",
      "method": "POST",
      "model": "mistralai/Mistral-Small-3.2-24B-Instruct-2506",
      "request_model": "albert-large",
      "prompt_tokens": 231,
      "completion_tokens": 54.0,
      "total_tokens": 285,
      "cost": 0.0,
      "status": 200,
      "kwh_min": 0.0,
      "kwh_max": 0.0,
      "kgco2eq_min": 0.0,
      "kgco2eq_max": 0.0
    },
    {
      "id": 18799121,
      "datetime": 1763569709,
      "duration": 7207,
      "time_to_first_token": null,
      "user_id": 8766,
      "token_id": 2818,
      "endpoint": "/v1/chat/completions",
      "method": "POST",
      "model": "mistralai/Mistral-Small-3.2-24B-Instruct-2506",
      "request_model": "albert-large",
      "prompt_tokens": 631,
      "completion_tokens": 207.0,
      "total_tokens": 838,
      "cost": 0.0,
      "status": 200,
      "kwh_min": 0.0,
      "kwh_max": 0.0,
      "kgco2eq_min": 0.0,
      "kgco2eq_max": 0.0
    },
    {
      "id": 18799113,
      "datetime": 1763569702,
      "duration": 6767,
      "time_to_first_token": null,
      "user_id": 8766,
      "token_id": 2818,
      "endpoint": "/v1/chat/completions",
      "method": "POST",
      "model": "mistralai/Mistral-Small-3.2-24B-Instruct-2506",
      "request_model": "albert-large",
      "prompt_tokens": 666,
      "completion_tokens": 312.0,
      "total_tokens": 978,
      "cost": 0.0,
      "status": 200,
      "kwh_min": 0.0,
      "kwh_max": 0.0,
      "kgco2eq_min": 0.0,
      "kgco2eq_max": 0.0
    },
    {
      "id": 18799111,
      "datetime": 1763569701,
      "duration": 207,
      "time_to_first_token": null,
      "user_id": 8766,
      "token_id": 2818,
      "endpoint": "/v1/chat/completions",
      "method": "POST",
      "model": "mistralai/Mistral-Small-3.2-24B-Instruct-2506",
      "request_model": "albert-large",
      "prompt_tokens": 583,
      "completion_tokens": 4.0,
      "total_tokens": 587,
      "cost": 0.0,
      "status": 200,
      "kwh_min": 0.0,
      "kwh_max": 0.0,
      "kgco2eq_min": 0.0,
      "kgco2eq_max": 0.0
    },
    {
      "id": 18799109,
      "datetime": 1763569701,
      "duration": 171,
      "time_to_first_token": null,
      "user_id": 8766,
      "token_id": 2818,
      "endpoint": "/v1/chat/completions",
      "method": "POST",
      "model": "mistralai/Mistral-Small-3.2-24B-Instruct-2506",
      "request_model": "albert-large",
      "prompt_tokens": 672,
      "completion_tokens": 1.0,
      "total_tokens": 673,
      "cost": 0.0,
      "status": 200,
      "kwh_min": 0.0,
      "kwh_max": 0.0,
      "kgco2eq_min": 0.0,
      "kgco2eq_max": 0.0
    },
    {
      "id": 18799108,
      "datetime": 1763569700,
      "duration": 231,
      "time_to_first_token": null,
      "user_id": 8766,
      "token_id": 2818,
      "endpoint": "/v1/chat/completions",
      "method": "POST",
      "model": "mistralai/Mistral-Small-3.2-24B-Instruct-2506",
      "request_model": "albert-large",
      "prompt_tokens": 481,
      "completion_tokens": 1.0,
      "total_tokens": 482,
      "cost": 0.0,
      "status": 200,
      "kwh_min": 0.0,
      "kwh_max": 0.0,
      "kgco2eq_min": 0.0,
      "kgco2eq_max": 0.0
    },
    {
      "id": 18799107,
      "datetime": 1763569698,
      "duration": 1620,
      "time_to_first_token": null,
      "user_id": 8766,
      "token_id": 2818,
      "endpoint": "/v1/chat/completions",
      "method": "POST",
      "model": "mistralai/Mistral-Small-3.2-24B-Instruct-2506",
      "request_model": "albert-large",
      "prompt_tokens": 309,
      "completion_tokens": 46.0,
      "total_tokens": 355,
      "cost": 0.0,
      "status": 200,
      "kwh_min": 0.0,
      "kwh_max": 0.0,
      "kgco2eq_min": 0.0,
      "kgco2eq_max": 0.0
    },
    {
      "id": 18799106,
      "datetime": 1763569692,
      "duration": 6024,
      "time_to_first_token": null,
      "user_id": 8766,
      "token_id": 2818,
      "endpoint": "/v1/chat/completions",
      "method": "POST",
      "model": "mistralai/Mistral-Small-3.2-24B-Instruct-2506",
      "request_model": "albert-large",
      "prompt_tokens": 2403,
      "completion_tokens": 260.0,
      "total_tokens": 2663,
      "cost": 0.0,
      "status": 200,
      "kwh_min": 0.0,
      "kwh_max": 0.0,
      "kgco2eq_min": 0.0,
      "kgco2eq_max": 0.0
    },
    {
      "id": 18799102,
      "datetime": 1763569690,
      "duration": 1707,
      "time_to_first_token": null,
      "user_id": 8766,
      "token_id": 2818,
      "endpoint": "/v1/chat/completions",
      "method": "POST",
      "model": "mistralai/Mistral-Small-3.2-24B-Instruct-2506",
      "request_model": "albert-large",
      "prompt_tokens": 205,
      "completion_tokens": 47.0,
      "total_tokens": 252,
      "cost": 0.0,
      "status": 200,
      "kwh_min": 0.0,
      "kwh_max": 0.0,
      "kgco2eq_min": 0.0,
      "kgco2eq_max": 0.0
    },
    {
      "id": 18799101,
      "datetime": 1763569689,
      "duration": 543,
      "time_to_first_token": null,
      "user_id": 8766,
      "token_id": 2818,
      "endpoint": "/v1/chat/completions",
      "method": "POST",
      "model": "mistralai/Mistral-Small-3.2-24B-Instruct-2506",
      "request_model": "albert-large",
      "prompt_tokens": 528,
      "completion_tokens": 12.0,
      "total_tokens": 540,
      "cost": 0.0,
      "status": 200,
      "kwh_min": 0.0,
      "kwh_max": 0.0,
      "kgco2eq_min": 0.0,
      "kgco2eq_max": 0.0
    },
    {
      "id": 18799099,
      "datetime": 1763569687,
      "duration": 1466,
      "time_to_first_token": null,
      "user_id": 8766,
      "token_id": 2818,
      "endpoint": "/v1/chat/completions",
      "method": "POST",
      "model": "mistralai/Mistral-Small-3.2-24B-Instruct-2506",
      "request_model": "albert-large",
      "prompt_tokens": 252,
      "completion_tokens": 64.0,
      "total_tokens": 316,
      "cost": 0.0,
      "status": 200,
      "kwh_min": 0.0,
      "kwh_max": 0.0,
      "kgco2eq_min": 0.0,
      "kgco2eq_max": 0.0
    },
    {
      "id": 18799098,
      "datetime": 1763569680,
      "duration": 6928,
      "time_to_first_token": null,
      "user_id": 8766,
      "token_id": 2818,
      "endpoint": "/v1/chat/completions",
      "method": "POST",
      "model": "mistralai/Mistral-Small-3.2-24B-Instruct-2506",
      "request_model": "albert-large",
      "prompt_tokens": 558,
      "completion_tokens": 326.0,
      "total_tokens": 884,
      "cost": 0.0,
      "status": 200,
      "kwh_min": 0.0,
      "kwh_max": 0.0,
      "kgco2eq_min": 0.0,
      "kgco2eq_max": 0.0
    },
    {
      "id": 18799096,
      "datetime": 1763569675,
      "duration": 5002,
      "time_to_first_token": null,
      "user_id": 8766,
      "token_id": 2818,
      "endpoint": "/v1/chat/completions",
      "method": "POST",
      "model": "mistralai/Mistral-Small-3.2-24B-Instruct-2506",
      "request_model": "albert-large",
      "prompt_tokens": 557,
      "completion_tokens": 232.0,
      "total_tokens": 789,
      "cost": 0.0,
      "status": 200,
      "kwh_min": 0.0,
      "kwh_max": 0.0,
      "kgco2eq_min": 0.0,
      "kgco2eq_max": 0.0
    },
    {
      "id": 18799093,
      "datetime": 1763569673,
      "duration": 236,
      "time_to_first_token": null,
      "user_id": 8766,
      "token_id": 2818,
      "endpoint": "/v1/chat/completions",
      "method": "POST",
      "model": "mistralai/Mistral-Small-3.2-24B-Instruct-2506",
      "request_model": "albert-large",
      "prompt_tokens": 620,
      "completion_tokens": 4.0,
      "total_tokens": 624,
      "cost": 0.0,
      "status": 200,
      "kwh_min": 0.0,
      "kwh_max": 0.0,
      "kgco2eq_min": 0.0,
      "kgco2eq_max": 0.0
    },
    {
      "id": 18799095,
      "datetime": 1763569673,
      "duration": 1813,
      "time_to_first_token": null,
      "user_id": 8766,
      "token_id": 2818,
      "endpoint": "/v1/chat/completions",
      "method": "POST",
      "model": "mistralai/Mistral-Small-3.2-24B-Instruct-2506",
      "request_model": "albert-large",
      "prompt_tokens": 302,
      "completion_tokens": 75.0,
      "total_tokens": 377,
      "cost": 0.0,
      "status": 200,
      "kwh_min": 0.0,
      "kwh_max": 0.0,
      "kgco2eq_min": 0.0,
      "kgco2eq_max": 0.0
    },
    {
      "id": 18799091,
      "datetime": 1763569673,
      "duration": 208,
      "time_to_first_token": null,
      "user_id": 8766,
      "token_id": 2818,
      "endpoint": "/v1/chat/completions",
      "method": "POST",
      "model": "mistralai/Mistral-Small-3.2-24B-Instruct-2506",
      "request_model": "albert-large",
      "prompt_tokens": 750,
      "completion_tokens": 1.0,
      "total_tokens": 751,
      "cost": 0.0,
      "status": 200,
      "kwh_min": 0.0,
      "kwh_max": 0.0,
      "kgco2eq_min": 0.0,
      "kgco2eq_max": 0.0
    },
    {
      "id": 18799090,
      "datetime": 1763569672,
      "duration": 129,
      "time_to_first_token": null,
      "user_id": 8766,
      "token_id": 2818,
      "endpoint": "/v1/chat/completions",
      "method": "POST",
      "model": "mistralai/Mistral-Small-3.2-24B-Instruct-2506",
      "request_model": "albert-large",
      "prompt_tokens": 438,
      "completion_tokens": 1.0,
      "total_tokens": 439,
      "cost": 0.0,
      "status": 200,
      "kwh_min": 0.0,
      "kwh_max": 0.0,
      "kgco2eq_min": 0.0,
      "kgco2eq_max": 0.0
    },
    {
      "id": 18799089,
      "datetime": 1763569671,
      "duration": 1263,
      "time_to_first_token": null,
      "user_id": 8766,
      "token_id": 2818,
      "endpoint": "/v1/chat/completions",
      "method": "POST",
      "model": "mistralai/Mistral-Small-3.2-24B-Instruct-2506",
      "request_model": "albert-large",
      "prompt_tokens": 304,
      "completion_tokens": 56.0,
      "total_tokens": 360,
      "cost": 0.0,
      "status": 200,
      "kwh_min": 0.0,
      "kwh_max": 0.0,
      "kgco2eq_min": 0.0,
      "kgco2eq_max": 0.0
    },
    {
      "id": 18799088,
      "datetime": 1763569665,
      "duration": 5721,
      "time_to_first_token": null,
      "user_id": 8766,
      "token_id": 2818,
      "endpoint": "/v1/chat/completions",
      "method": "POST",
      "model": "mistralai/Mistral-Small-3.2-24B-Instruct-2506",
      "request_model": "albert-large",
      "prompt_tokens": 2276,
      "completion_tokens": 255.0,
      "total_tokens": 2531,
      "cost": 0.0,
      "status": 200,
      "kwh_min": 0.0,
      "kwh_max": 0.0,
      "kgco2eq_min": 0.0,
      "kgco2eq_max": 0.0
    },
    {
      "id": 18799092,
      "datetime": 1763569664,
      "duration": 9014,
      "time_to_first_token": null,
      "user_id": 8766,
      "token_id": 2818,
      "endpoint": "/v1/chat/completions",
      "method": "POST",
      "model": "mistralai/Mistral-Small-3.2-24B-Instruct-2506",
      "request_model": "albert-large",
      "prompt_tokens": 2444,
      "completion_tokens": 253.0,
      "total_tokens": 2697,
      "cost": 0.0,
      "status": 200,
      "kwh_min": 0.0,
      "kwh_max": 0.0,
      "kgco2eq_min": 0.0,
      "kgco2eq_max": 0.0
    }
  ],
  "total": 17583,
  "total_requests": 17583,
  "total_albert_coins": 0.0,
  "total_tokens": 15638391,
  "total_co2": 0.0,
  "page": 1,
  "limit": 50,
  "total_pages": 352,
  "has_more": true
}
